Week 3 Assignment
…
summary(anova)

##                Df    Sum Sq   Mean Sq F value Pr(>F)    
## RAC1P_label     7 1.087e+12 1.553e+11   25.61 <2e-16 ***
## Residuals   13145 7.974e+13 6.066e+09                   
## ---
## Signif. codes:  0 '***' 0.001 '**' 0.01 '*' 0.05 '.' 0.1 ' ' 1

differences <- TukeyHSD(anova)

as_tibble(cbind(pair = row.names(differences$RAC1P),
                differences$RAC1P))

## # A tibble: 28 x 5
##    pair                               diff       lwr        upr       `p adj`   
##    <chr>                              <chr>      <chr>      <chr>     <chr>     
##  1 American Indian and Alaska Native~ -42753.94~ -143713.2~ 58205.37~ 0.9051398~
##  2 Asian alone-American Indian alone  17228.890~ -30561.22~ 65019.00~ 0.9584928~
##  3 Black or African American alone-A~ -13417.68~ -61097.41~ 34262.04~ 0.9899160~
##  4 Native Hawaiian and Other Pacific~ 31383.199~ -84280.23~ 147046.6~ 0.9919051~
##  5 Some Other Race alone-American In~ -21736.58~ -69660.99~ 26187.83~ 0.8688624~
##  6 Two or More Races-American Indian~ -6565.221~ -55011.30~ 41880.85~ 0.9999100~
##  7 White alone-American Indian alone  3846.1566~ -43435.29~ 51127.60~ 0.9999972~
##  8 Asian alone-American Indian and A~ 59982.833~ -29556.74~ 149522.4~ 0.4609252~
##  9 Black or African American alone-A~ 29336.257~ -60144.45~ 118816.9~ 0.9754412~
## 10 Native Hawaiian and Other Pacific~ 74137.142~ -64107.10~ 212381.3~ 0.7348323~
## # ... with 18 more rows
…
